<svg xmlns="http://www.w3.org/2000/svg" width="21.304" height="18.369" viewBox="0 0 21.304 18.369">
  <path id="Path_25" data-name="Path 25" d="M85.7,91.568H71.255a1.539,1.539,0,0,1,0-3.077H85.7l-4.95-4.95c-1.472-1.472.8-3.612,2.274-2.274l7.625,7.625a1.812,1.812,0,0,1,0,2.274l-7.625,7.625c-1.472,1.338-3.746-.8-2.274-2.274Z" transform="translate(91.054 99.214) rotate(180)" fill="#c22b33" fill-rule="evenodd"/>
</svg>
