<svg xmlns="http://www.w3.org/2000/svg" width="17.73" height="17.7" viewBox="0 0 17.728 17.705">
  <defs>
    <style>
      .cls-1 {
        fill: #c22b33;
      }
    </style>
  </defs>
  <path id="Path_203" data-name="Path 203" class="cls-1" d="M44.371,44.355l-.077.077a.9.9,0,0,1-1.466,0l-6.944-6.905-6.905,6.905a.882.882,0,0,1-1.466,0l-.116-.077a.9.9,0,0,1,0-1.466l6.944-6.944-6.905-6.905a.882.882,0,0,1,0-1.466l.077-.077a.9.9,0,0,1,1.466,0L35.884,34.4,42.789,27.5a.9.9,0,0,1,1.466,0l.077.077a.9.9,0,0,1,0,1.466l-6.905,6.905,6.944,6.944A.9.9,0,0,1,44.371,44.355Z" transform="translate(-27.019 -27.119)"/>
</svg>
